%YAML 1.1
%TAG !u! tag:unity3d.com,2011:
--- !u!114 &11400000
MonoBehaviour:
  m_ObjectHideFlags: 0
  m_CorrespondingSourceObject: {fileID: 0}
  m_PrefabInstance: {fileID: 0}
  m_PrefabAsset: {fileID: 0}
  m_GameObject: {fileID: 0}
  m_Enabled: 1
  m_EditorHideFlags: 0
  m_Script: {fileID: 11500000, guid: 060c3cbdce4a69841a8dd0eece8ea399, type: 3}
  m_Name: DataHandlersCollection
  m_EditorClassIdentifier: 
  m_DataHandlers:
  - {fileID: 11400000, guid: 1066df03fd27ffc40ab54f574a1192aa, type: 2}
